vcd_example/curva_wave.vcd
$version Generated by VerilatedVcd $end
$timescale 1ps $end

 $scope module TOP $end
  $var wire  1 J! clk $end
  $var wire 64 S! data_addr [63:0] $end
  $var wire 32 L! instr [31:0] $end
  $var wire 64 Q! instr_addr [63:0] $end
  $var wire  1 O! instr_valid $end
  $var wire 64 M! rdata [63:0] $end
  $var wire  1 P! rdata_valid $end
  $var wire  1 K! rstn $end
  $var wire 64 U! wdata [63:0] $end
  $var wire  1 X! wdata_en $end
  $var wire  4 W! wlen [3:0] $end
  $scope module curva $end
   $var wire 64 A alu_res [63:0] $end
   $var wire  1 J! clk $end
   $var wire  6 % ctrl_sig [5:0] $end
   $var wire 64 5 data_addr [63:0] $end
   $var wire 64 ]! ext_rdata [63:0] $end
   $var wire 32 L! instr [31:0] $end
   $var wire 64 f instr_addr [63:0] $end
   $var wire  7 ' instr_type [6:0] $end
   $var wire  1 O! instr_valid $end
   $var wire  1 ( is_word_op $end
   $var wire 64 9 next_pc [63:0] $end
   $var wire 64 = op0 [63:0] $end
   $var wire 64 ? op1 [63:0] $end
   $var wire 19 & op_type [18:0] $end
   $var wire 64 M! rdata [63:0] $end
   $var wire  1 P! rdata_valid $end
   $var wire 64 ; reg_data0 [63:0] $end
   $var wire 64 7 reg_data1 [63:0] $end
   $var wire  1 K! rstn $end
   $var wire 64 # sext_imm [63:0] $end
   $var wire 64 7 wdata [63:0] $end
   $var wire  1 Z! wdata_en $end
   $var wire  4 Y! wlen [3:0] $end
   $var wire 64 [! wreg_data [63:0] $end
   $scope module alu_inst0 $end
    $var wire 64 E add_res [63:0] $end
    $var wire 64 [ add_temp [63:0] $end
    $var wire 64 A alu_res [63:0] $end
    $var wire 64 S eq_res [63:0] $end
    $var wire 64 W ge_res [63:0] $end
    $var wire 64 Y geu_res [63:0] $end
    $var wire  1 ( is_word_op $end
    $var wire 64 C mask_for_sra [63:0] $end
    $var wire 64 U ne_res [63:0] $end
    $var wire 64 = op0 [63:0] $end
    $var wire 64 ? op1 [63:0] $end
    $var wire 19 & op_type [18:0] $end
    $var wire  6 e shamt [5:0] $end
    $var wire 64 K signed_less_cmp_res [63:0] $end
    $var wire 64 M sll_res [63:0] $end
    $var wire 64 _ sll_temp [63:0] $end
    $var wire 64 O sra_res [63:0] $end
    $var wire 64 a sra_temp [63:0] $end
    $var wire 64 Q srl_res [63:0] $end
    $var wire 64 c srl_temp [63:0] $end
    $var wire 64 G sub_res [63:0] $end
    $var wire 64 ] sub_temp [63:0] $end
    $var wire 64 I unsigned_less_cmp_res [63:0] $end
   $upscope $end
   $scope module ctrl_inst0 $end
    $var wire  6 % ctrl_sig [5:0] $end
    $var wire  3 `! func3 [2:0] $end
    $var wire  6 b! func6 [5:0] $end
    $var wire  7 a! func7 [6:0] $end
    $var wire 32 L! instr [31:0] $end
    $var wire  7 ' instr_type [6:0] $end
    $var wire  1 ( is_word_op $end
    $var wire 19 & op_type [18:0] $end
    $var wire  7 _! opcode [6:0] $end
    $var wire  1 Z! wdata_en $end
    $var wire  4 Y! wlen [3:0] $end
   $upscope $end
   $scope module gen_data_addr_inst0 $end
    $var wire 64 A alu_res [63:0] $end
    $var wire 64 5 data_addr [63:0] $end
    $var wire  1 ) is_load_or_store_instr $end
   $upscope $end
   $scope module gen_next_pc_inst0 $end
    $var wire 64 A alu_res [63:0] $end
    $var wire  7 ' instr_type [6:0] $end
    $var wire  1 * is_jalr $end
    $var wire 64 9 next_pc [63:0] $end
    $var wire 64 f pc [63:0] $end
    $var wire 64 ; reg_data0 [63:0] $end
    $var wire 64 # sext_imm [63:0] $end
   $upscope $end
   $scope module gen_wdata_inst0 $end
    $var wire 64 7 reg_data1 [63:0] $end
    $var wire 64 7 wdata [63:0] $end
   $upscope $end
   $scope module instr_sign_ext_inst0 $end
    $var wire 64 h! btype_sext_imm [63:0] $end
    $var wire 64 + btype_zext_imm [63:0] $end
    $var wire 32 L! instr [31:0] $end
    $var wire  7 ' instr_type [6:0] $end
    $var wire 64 j! itype_sext_imm [63:0] $end
    $var wire 64 d! itype_zext_imm [63:0] $end
    $var wire 64 l! jtype_sext_imm [63:0] $end
    $var wire 64 - jtype_zext_imm [63:0] $end
    $var wire 64 # sext_imm [63:0] $end
    $var wire  1 c! sign_flag $end
    $var wire 64 n! stype_sext_imm [63:0] $end
    $var wire 64 / stype_zext_imm [63:0] $end
    $var wire 64 p! utype_sext_imm [63:0] $end
    $var wire 64 f! utype_zext_imm [63:0] $end
   $upscope $end
   $scope module program_counter_inst0 $end
    $var wire  1 J! clk $end
    $var wire 64 9 next_pc [63:0] $end
    $var wire 64 f pc [63:0] $end
    $var wire  1 K! rstn $end
   $upscope $end
   $scope module rdata_ext_inst0 $end
    $var wire 64 x! byte_sext_data [63:0] $end
    $var wire 64 r! byte_zext_data [63:0] $end
    $var wire 64 ]! ext_rdata [63:0] $end
    $var wire  3 `! func3 [2:0] $end
    $var wire 64 z! half_sext_data [63:0] $end
    $var wire 64 t! half_zext_data [63:0] $end
    $var wire 64 M! rdata [63:0] $end
    $var wire 64 |! word_sext_data [63:0] $end
    $var wire 64 v! word_zext_data [63:0] $end
   $upscope $end
   $scope module reg_file_inst0 $end
    $var wire  1 J! clk $end
    $var wire 64 ; reg_data0 [63:0] $end
    $var wire 64 7 reg_data1 [63:0] $end
    $var wire  5 ~! reg_id0 [4:0] $end
    $var wire  5 !" reg_id1 [4:0] $end
    $var wire 64 h regs[0] [63:0] $end
    $var wire 64 | regs[10] [63:0] $end
    $var wire 64 ~ regs[11] [63:0] $end
    $var wire 64 "! regs[12] [63:0] $end
    $var wire 64 $! regs[13] [63:0] $end
    $var wire 64 &! regs[14] [63:0] $end
    $var wire 64 (! regs[15] [63:0] $end
    $var wire 64 *! regs[16] [63:0] $end
    $var wire 64 ,! regs[17] [63:0] $end
    $var wire 64 .! regs[18] [63:0] $end
    $var wire 64 0! regs[19] [63:0] $end
    $var wire 64 j regs[1] [63:0] $end
    $var wire 64 2! regs[20] [63:0] $end
    $var wire 64 4! regs[21] [63:0] $end
    $var wire 64 6! regs[22] [63:0] $end
    $var wire 64 8! regs[23] [63:0] $end
    $var wire 64 :! regs[24] [63:0] $end
    $var wire 64 <! regs[25] [63:0] $end
    $var wire 64 >! regs[26] [63:0] $end
    $var wire 64 @! regs[27] [63:0] $end
    $var wire 64 B! regs[28] [63:0] $end
    $var wire 64 D! regs[29] [63:0] $end
    $var wire 64 l regs[2] [63:0] $end
    $var wire 64 F! regs[30] [63:0] $end
    $var wire 64 H! regs[31] [63:0] $end
    $var wire 64 n regs[3] [63:0] $end
    $var wire 64 p regs[4] [63:0] $end
    $var wire 64 r regs[5] [63:0] $end
    $var wire 64 t regs[6] [63:0] $end
    $var wire 64 v regs[7] [63:0] $end
    $var wire 64 x regs[8] [63:0] $end
    $var wire 64 z regs[9] [63:0] $end
    $var wire  1 K! rstn $end
    $var wire  1 4 wen0 $end
    $var wire 64 [! wreg_data [63:0] $end
    $var wire  5 "" wreg_id [4:0] $end
    $var wire 64 #" x0 [63:0] $end
    $var wire 64 %" x1 [63:0] $end
    $var wire 64 7" x10 [63:0] $end
    $var wire 64 9" x11 [63:0] $end
    $var wire 64 ;" x12 [63:0] $end
    $var wire 64 =" x13 [63:0] $end
    $var wire 64 ?" x14 [63:0] $end
    $var wire 64 A" x15 [63:0] $end
    $var wire 64 C" x16 [63:0] $end
    $var wire 64 E" x17 [63:0] $end
    $var wire 64 G" x18 [63:0] $end
    $var wire 64 I" x19 [63:0] $end
    $var wire 64 '" x2 [63:0] $end
    $var wire 64 K" x20 [63:0] $end
    $var wire 64 M" x21 [63:0] $end
    $var wire 64 O" x22 [63:0] $end
    $var wire 64 Q" x23 [63:0] $end
    $var wire 64 S" x24 [63:0] $end
    $var wire 64 U" x25 [63:0] $end
    $var wire 64 W" x26 [63:0] $end
    $var wire 64 Y" x27 [63:0] $end
    $var wire 64 [" x28 [63:0] $end
    $var wire 64 ]" x29 [63:0] $end
    $var wire 64 )" x3 [63:0] $end
    $var wire 64 _" x30 [63:0] $end
    $var wire 64 a" x31 [63:0] $end
    $var wire 64 +" x4 [63:0] $end
    $var wire 64 -" x5 [63:0] $end
    $var wire 64 /" x6 [63:0] $end
    $var wire 64 1" x7 [63:0] $end
    $var wire 64 3" x8 [63:0] $end
    $var wire 64 5" x9 [63:0] $end
   $upscope $end
   $scope module sel_op_to_alu_inst0 $end
    $var wire  7 ' instr_type [6:0] $end
    $var wire  1 * is_jalr $end
    $var wire 64 = op0 [63:0] $end
    $var wire  1 1 op0_sel $end
    $var wire 64 ? op1 [63:0] $end
    $var wire  1 2 op1_sel $end
    $var wire 64 f pc [63:0] $end
    $var wire 64 ; reg_data0 [63:0] $end
    $var wire 64 7 reg_data1 [63:0] $end
    $var wire 64 # sext_imm [63:0] $end
   $upscope $end
   $scope module sel_wdata_to_reg_inst0 $end
    $var wire 64 A alu_res [63:0] $end
    $var wire 64 ]! mem_data [63:0] $end
    $var wire 64 [! wreg_data [63:0] $end
    $var wire  1 3 wreg_src $end
   $upscope $end
  $upscope $end
 $upscope $end
$enddefinitions $end


#0
b0000000000000000000000000000000000000000000000000000000000000000 #
b001100 %
b1000000000000000000 &
b1000000 '
0(
0)
0*
b0000000000000000000000000000000000000000000000000000000000000000 +
b0000000000000000000000000000000000000000000000000000000000000000 -
b0000000000000000000000000000000000000000000000000000000000000000 /
11
12
03
04
b0000000000000000000000000000000010000000000000000000000000000000 5
b0000000000000000000000000000000000000000000000000000000000000000 7
b0000000000000000000000000000000000000000000000000000000000000100 9
b0000000000000000000000000000000000000000000000000000000000000000 ;
b0000000000000000000000000000000000000000000000000000000000000000 =
b0000000000000000000000000000000000000000000000000000000000000000 ?
b0000000000000000000000000000000000000000000000000000000000000000 A
b0000000000000000000000000000000000000000000000000000000000000000 C
b0000000000000000000000000000000000000000000000000000000000000000 E
b0000000000000000000000000000000000000000000000000000000000000000 G
b0000000000000000000000000000000000000000000000000000000000000000 I
b0000000000000000000000000000000000000000000000000000000000000000 K
b0000000000000000000000000000000000000000000000000000000000000000 M
b0000000000000000000000000000000000000000000000000000000000000000 O
b0000000000000000000000000000000000000000000000000000000000000000 Q
b0000000000000000000000000000000000000000000000000000000000000001 S
b0000000000000000000000000000000000000000000000000000000000000000 U
b0000000000000000000000000000000000000000000000000000000000000001 W
b0000000000000000000000000000000000000000000000000000000000000001 Y
b0000000000000000000000000000000000000000000000000000000000000000 [
b0000000000000000000000000000000000000000000000000000000000000000 ]
b0000000000000000000000000000000000000000000000000000000000000000 _
b0000000000000000000000000000000000000000000000000000000000000000 a
b0000000000000000000000000000000000000000000000000000000000000000 c
b000000 e
b0000000000000000000000000000000000000000000000000000000000000000 f
b0000000000000000000000000000000000000000000000000000000000000000 h
b0000000000000000000000000000000000000000000000000000000000000000 j
b0000000000000000000000000000000000000000000000000000000000000000 l
b0000000000000000000000000000000000000000000000000000000000000000 n
b0000000000000000000000000000000000000000000000000000000000000000 p
b0000000000000000000000000000000000000000000000000000000000000000 r
b0000000000000000000000000000000000000000000000000000000000000000 t
b0000000000000000000000000000000000000000000000000000000000000000 v
b0000000000000000000000000000000000000000000000000000000000000000 x
b0000000000000000000000000000000000000000000000000000000000000000 z
b0000000000000000000000000000000000000000000000000000000000000000 |
b0000000000000000000000000000000000000000000000000000000000000000 ~
b0000000000000000000000000000000000000000000000000000000000000000 "!
b0000000000000000000000000000000000000000000000000000000000000000 $!
b0000000000000000000000000000000000000000000000000000000000000000 &!
b0000000000000000000000000000000000000000000000000000000000000000 (!
b0000000000000000000000000000000000000000000000000000000000000000 *!
b0000000000000000000000000000000000000000000000000000000000000000 ,!
b0000000000000000000000000000000000000000000000000000000000000000 .!
b0000000000000000000000000000000000000000000000000000000000000000 0!
b0000000000000000000000000000000000000000000000000000000000000000 2!
b0000000000000000000000000000000000000000000000000000000000000000 4!
b0000000000000000000000000000000000000000000000000000000000000000 6!
b0000000000000000000000000000000000000000000000000000000000000000 8!
b0000000000000000000000000000000000000000000000000000000000000000 :!
b0000000000000000000000000000000000000000000000000000000000000000 <!
b0000000000000000000000000000000000000000000000000000000000000000 >!
b0000000000000000000000000000000000000000000000000000000000000000 @!
b0000000000000000000000000000000000000000000000000000000000000000 B!
b0000000000000000000000000000000000000000000000000000000000000000 D!
b0000000000000000000000000000000000000000000000000000000000000000 F!
b0000000000000000000000000000000000000000000000000000000000000000 H!
0J!
0K!
b00000000000000000000000000000000 L!
b0000000010000001000000010001001100000000010000001000000010010011 M!
1O!
1P!
b0000000000000000000000000000000000000000000000000000000000000000 Q!
b0000000000000000000000000000000010000000000000000000000000000000 S!
b0000000000000000000000000000000000000000000000000000000000000000 U!
b0001 W!
0X!
b0001 Y!
0Z!
b1111111111111111111111111111111111111111111111111111111110010011 [!
b1111111111111111111111111111111111111111111111111111111110010011 ]!
b0000000 _!
b000 `!
b0000000 a!
b000000 b!
0c!
b0000000000000000000000000000000000000000000000000000000000000000 d!
b0000000000000000000000000000000000000000000000000000000000000000 f!
b0000000000000000000000000000000000000000000000000000000000000000 h!
b0000000000000000000000000000000000000000000000000000000000000000 j!
b0000000000000000000000000000000000000000000000000000000000000000 l!
b0000000000000000000000000000000000000000000000000000000000000000 n!
b0000000000000000000000000000000000000000000000000000000000000000 p!
b0000000000000000000000000000000000000000000000000000000010010011 r!
b0000000000000000000000000000000000000000000000001000000010010011 t!
b0000000000000000000000000000000000000000010000001000000010010011 v!
b1111111111111111111111111111111111111111111111111111111110010011 x!
b1111111111111111111111111111111111111111111111111000000010010011 z!
b0000000000000000000000000000000000000000010000001000000010010011 |!
b00000 ~!
b00000 !"
b00000 ""
b0000000000000000000000000000000000000000000000000000000000000000 #"
b0000000000000000000000000000000000000000000000000000000000000000 %"
b0000000000000000000000000000000000000000000000000000000000000000 '"
b0000000000000000000000000000000000000000000000000000000000000000 )"
b0000000000000000000000000000000000000000000000000000000000000000 +"
b0000000000000000000000000000000000000000000000000000000000000000 -"
b0000000000000000000000000000000000000000000000000000000000000000 /"
b0000000000000000000000000000000000000000000000000000000000000000 1"
b0000000000000000000000000000000000000000000000000000000000000000 3"
b0000000000000000000000000000000000000000000000000000000000000000 5"
b0000000000000000000000000000000000000000000000000000000000000000 7"
b0000000000000000000000000000000000000000000000000000000000000000 9"
b0000000000000000000000000000000000000000000000000000000000000000 ;"
b0000000000000000000000000000000000000000000000000000000000000000 ="
b0000000000000000000000000000000000000000000000000000000000000000 ?"
b0000000000000000000000000000000000000000000000000000000000000000 A"
b0000000000000000000000000000000000000000000000000000000000000000 C"
b0000000000000000000000000000000000000000000000000000000000000000 E"
b0000000000000000000000000000000000000000000000000000000000000000 G"
b0000000000000000000000000000000000000000000000000000000000000000 I"
b0000000000000000000000000000000000000000000000000000000000000000 K"
b0000000000000000000000000000000000000000000000000000000000000000 M"
b0000000000000000000000000000000000000000000000000000000000000000 O"
b0000000000000000000000000000000000000000000000000000000000000000 Q"
b0000000000000000000000000000000000000000000000000000000000000000 S"
b0000000000000000000000000000000000000000000000000000000000000000 U"
b0000000000000000000000000000000000000000000000000000000000000000 W"
b0000000000000000000000000000000000000000000000000000000000000000 Y"
b0000000000000000000000000000000000000000000000000000000000000000 ["
b0000000000000000000000000000000000000000000000000000000000000000 ]"
b0000000000000000000000000000000000000000000000000000000000000000 _"
b0000000000000000000000000000000000000000000000000000000000000000 a"
#1
b0000000000000000000000000000000010000000000000000000000000000100 9
b0000000000000000000000000000000010000000000000000000000000000000 f
1J!
b00000000010000001000000010010011 L!
b0000000000000000000000000000000010000000000000000000000000000000 Q!
b0010011 _!
b0000000000000000000000000000000000000000000000000000000000000100 d!
b0000000000000000000000000000000000000000010000001000000000000000 f!
b0000000000000000000000000000000000000000000000000000000000000100 j!
b0000000000000000000000000000000000000000010000001000000000000000 p!
b00001 ~!
b00100 !"
b00001 ""
#2
b0000000000000000000000000000000000000000000000000000000000000100 #
b000111 %
b0000000000000000001 &
b0000010 '
b0000000000000000000000000000000000000000000000000000100000000000 +
b0000000000000000000000000000000000000000000000001000000000000100 -
b0000000000000000000000000000000000000000000000000000000000000001 /
02
13
14
b0000000000000000000000000000000000000000000000000000000000000100 ?
b0000000000000000000000000000000000000000000000000000000000000100 A
b0000000000000000000000000000000000000000000000000000000000000100 E
b1111111111111111111111111111111111111111111111111111111111111100 G
b0000000000000000000000000000000000000000000000000000000000000001 I
b0000000000000000000000000000000000000000000000000000000000000001 K
b0000000000000000000000000000000000000000000000000000000000000000 S
b0000000000000000000000000000000000000000000000000000000000000001 U
b0000000000000000000000000000000000000000000000000000000000000000 W
b0000000000000000000000000000000000000000000000000000000000000000 Y
b0000000000000000000000000000000000000000000000000000000000000100 [
b1111111111111111111111111111111111111111111111111111111111111100 ]
b000100 e
0J!
b0000000000000000000000000000000000000000000000000000000000000100 [!
b0000000000000000000000000000000000000000000000000000100000000000 h!
b0000000000000000000000000000000000000000000000001000000000000100 l!
b0000000000000000000000000000000000000000000000000000000000000001 n!
#3
1J!
#4
0J!
#5
1J!
#6
0J!
#7
1J!
#8
0J!
#9
1J!
#10
0J!
#11
1J!
#12
0J!
1K!
#13
b0000000000000000000000000000000010000000000000000000000000001000 9
b0000000000000000000000000000000000000000000000000000000000000100 ;
b0000000000000000000000000000000000000000000000000000000000000100 =
b0000000000000000000000000000000000000000000000000000000000001000 A
b0000000000000000000000000000000000000000000000000000000000001000 E
b0000000000000000000000000000000000000000000000000000000000000000 G
b0000000000000000000000000000000000000000000000000000000000000000 I
b0000000000000000000000000000000000000000000000000000000000000000 K
b0000000000000000000000000000000000000000000000000000000001000000 M
b0000000000000000000000000000000000000000000000000000000000000001 S
b0000000000000000000000000000000000000000000000000000000000000000 U
b0000000000000000000000000000000000000000000000000000000000000001 W
b0000000000000000000000000000000000000000000000000000000000000001 Y
b0000000000000000000000000000000000000000000000000000000000001000 [
b0000000000000000000000000000000000000000000000000000000000000000 ]
b0000000000000000000000000000000000000000000000000000000001000000 _
b0000000000000000000000000000000010000000000000000000000000000100 f
b0000000000000000000000000000000000000000000000000000000000000100 j
1J!
b00000000100000010000000100010011 L!
b0000000000000000000000000000000010000000000000000000000000000100 Q!
b0000000000000000000000000000000000000000000000000000000000001000 [!
b0000000000000000000000000000000000000000000000000000000000001000 d!
b0000000000000000000000000000000000000000100000010000000000000000 f!
b0000000000000000000000000000000000000000000000000000000000001000 j!
b0000000000000000000000000000000000000000100000010000000000000000 p!
b00010 ~!
b01000 !"
b00010 ""
b0000000000000000000000000000000000000000000000000000000000000100 %"
#14
b0000000000000000000000000000000000000000000000000000000000001000 #
b0000000000000000000000000000000000000000000000000000000000000010 +
b0000000000000000000000000000000000000000000000010000000000001000 -
b0000000000000000000000000000000000000000000000000000000000000010 /
b0000000000000000000000000000000000000000000000000000000000000000 ;
b0000000000000000000000000000000000000000000000000000000000000000 =
b0000000000000000000000000000000000000000000000000000000000001000 ?
b1111111111111111111111111111111111111111111111111111111111111000 G
b0000000000000000000000000000000000000000000000000000000000000001 I
b0000000000000000000000000000000000000000000000000000000000000001 K
b0000000000000000000000000000000000000000000000000000000000000000 M
b0000000000000000000000000000000000000000000000000000000000000000 S
b0000000000000000000000000000000000000000000000000000000000000001 U
b0000000000000000000000000000000000000000000000000000000000000000 W
b0000000000000000000000000000000000000000000000000000000000000000 Y
b1111111111111111111111111111111111111111111111111111111111111000 ]
b0000000000000000000000000000000000000000000000000000000000000000 _
b001000 e
0J!
b0000000000000000000000000000000000000000000000000000000000000010 h!
b0000000000000000000000000000000000000000000000010000000000001000 l!
b0000000000000000000000000000000000000000000000000000000000000010 n!
#15
b0000000000000000000000000000000010000000000000000000000000001100 9
b0000000000000000000000000000000000000000000000000000000000001000 ;
b0000000000000000000000000000000000000000000000000000000000001000 =
b0000000000000000000000000000000000000000000000000000000000010000 A
b0000000000000000000000000000000000000000000000000000000000010000 E
b0000000000000000000000000000000000000000000000000000000000000000 G
b0000000000000000000000000000000000000000000000000000000000000000 I
b0000000000000000000000000000000000000000000000000000000000000000 K
b0000000000000000000000000000000000000000000000000000100000000000 M
b0000000000000000000000000000000000000000000000000000000000000001 S
b0000000000000000000000000000000000000000000000000000000000000000 U
b0000000000000000000000000000000000000000000000000000000000000001 W
b0000000000000000000000000000000000000000000000000000000000000001 Y
b0000000000000000000000000000000000000000000000000000000000010000 [
b0000000000000000000000000000000000000000000000000000000000000000 ]
b0000000000000000000000000000000000000000000000000000100000000000 _
b0000000000000000000000000000000010000000000000000000000000001000 f
b0000000000000000000000000000000000000000000000000000000000001000 l
1J!
b00000001000000011000000110010011 L!
b0000000000000000000000000000000010000000000000000000000000001000 Q!
b0000000000000000000000000000000000000000000000000000000000010000 [!
b0000000000000000000000000000000000000000000000000000000000010000 d!
b0000000000000000000000000000000000000001000000011000000000000000 f!
b0000000000000000000000000000000000000000000000000000000000010000 j!
b0000000000000000000000000000000000000001000000011000000000000000 p!
b00011 ~!
b10000 !"
b00011 ""
b0000000000000000000000000000000000000000000000000000000000001000 '"
#16
b0000000000000000000000000000000000000000000000000000000000010000 #
b0000000000000000000000000000000000000000000000000000100000000010 +
b0000000000000000000000000000000000000000000000011000000000010000 -
b0000000000000000000000000000000000000000000000000000000000000011 /
b0000000000000000000000000000000000000000000000000000000000000000 ;
b0000000000000000000000000000000000000000000000000000000000000000 =
b0000000000000000000000000000000000000000000000000000000000010000 ?
b1111111111111111111111111111111111111111111111111111111111110000 G
b0000000000000000000000000000000000000000000000000000000000000001 I
b0000000000000000000000000000000000000000000000000000000000000001 K
b0000000000000000000000000000000000000000000000000000000000000000 M
b0000000000000000000000000000000000000000000000000000000000000000 S
b0000000000000000000000000000000000000000000000000000000000000001 U
b0000000000000000000000000000000000000000000000000000000000000000 W
b0000000000000000000000000000000000000000000000000000000000000000 Y
b1111111111111111111111111111111111111111111111111111111111110000 ]
b0000000000000000000000000000000000000000000000000000000000000000 _
b010000 e
0J!
b0000000000000000000000000000000000000000000000000000100000000010 h!
b0000000000000000000000000000000000000000000000011000000000010000 l!
b0000000000000000000000000000000000000000000000000000000000000011 n!
#17
b0000000000000000000000000000000010000000000000000000000000010000 9
b0000000000000000000000000000000000000000000000000000000000010000 ;
b0000000000000000000000000000000000000000000000000000000000010000 =
b0000000000000000000000000000000000000000000000000000000000100000 A
b0000000000000000000000000000000000000000000000000000000000100000 E
b0000000000000000000000000000000000000000000000000000000000000000 G
b0000000000000000000000000000000000000000000000000000000000000000 I
b0000000000000000000000000000000000000000000000000000000000000000 K
b0000000000000000000000000000000000000000000100000000000000000000 M
b0000000000000000000000000000000000000000000000000000000000000001 S
b0000000000000000000000000000000000000000000000000000000000000000 U
b0000000000000000000000000000000000000000000000000000000000000001 W
b0000000000000000000000000000000000000000000000000000000000000001 Y
b0000000000000000000000000000000000000000000000000000000000100000 [
b0000000000000000000000000000000000000000000000000000000000000000 ]
b0000000000000000000000000000000000000000000100000000000000000000 _
b0000000000000000000000000000000010000000000000000000000000001100 f
b0000000000000000000000000000000000000000000000000000000000010000 n
1J!
b00000001000100100000001000010011 L!
b0000000000000000000000000000000010000000000000000000000000001100 Q!
b0000000000000000000000000000000000000000000000000000000000100000 [!
b0000000000000000000000000000000000000000000000000000000000010001 d!
b0000000000000000000000000000000000000001000100100000000000000000 f!
b0000000000000000000000000000000000000000000000000000000000010001 j!
b0000000000000000000000000000000000000001000100100000000000000000 p!
b00100 ~!
b10001 !"
b00100 ""
b0000000000000000000000000000000000000000000000000000000000010000 )"
#18
b0000000000000000000000000000000000000000000000000000000000010001 #
b0000000000000000000000000000000000000000000000000000000000000100 +
b0000000000000000000000000000000000000000000000100000100000010000 -
b0000000000000000000000000000000000000000000000000000000000000100 /
b0000000000000000000000000000000000000000000000000000000000000000 ;
b0000000000000000000000000000000000000000000000000000000000000000 =
b0000000000000000000000000000000000000000000000000000000000010001 ?
b0000000000000000000000000000000000000000000000000000000000010001 A
b0000000000000000000000000000000000000000000000000000000000010001 E
b1111111111111111111111111111111111111111111111111111111111101111 G
b0000000000000000000000000000000000000000000000000000000000000001 I
b0000000000000000000000000000000000000000000000000000000000000001 K
b0000000000000000000000000000000000000000000000000000000000000000 M
b0000000000000000000000000000000000000000000000000000000000000000 S
b0000000000000000000000000000000000000000000000000000000000000001 U
b0000000000000000000000000000000000000000000000000000000000000000 W
b0000000000000000000000000000000000000000000000000000000000000000 Y
b0000000000000000000000000000000000000000000000000000000000010001 [
b1111111111111111111111111111111111111111111111111111111111101111 ]
b0000000000000000000000000000000000000000000000000000000000000000 _
b010001 e
0J!
b0000000000000000000000000000000000000000000000000000000000010001 [!
b0000000000000000000000000000000000000000000000000000000000000100 h!
b0000000000000000000000000000000000000000000000100000100000010000 l!
b0000000000000000000000000000000000000000000000000000000000000100 n!
#19
b0000000000000000000000000000000010000000000000000000000000010100 9
b0000000000000000000000000000000000000000000000000000000000010001 ;
b0000000000000000000000000000000000000000000000000000000000010001 =
b0000000000000000000000000000000000000000000000000000000000100010 A
b0000000000000000000000000000000000000000000000000000000000100010 E
b0000000000000000000000000000000000000000000000000000000000000000 G
b0000000000000000000000000000000000000000000000000000000000000000 I
b0000000000000000000000000000000000000000000000000000000000000000 K
b0000000000000000000000000000000000000000001000100000000000000000 M
b0000000000000000000000000000000000000000000000000000000000000001 S
b0000000000000000000000000000000000000000000000000000000000000000 U
b0000000000000000000000000000000000000000000000000000000000000001 W
b0000000000000000000000000000000000000000000000000000000000000001 Y
b0000000000000000000000000000000000000000000000000000000000100010 [
b0000000000000000000000000000000000000000000000000000000000000000 ]
b0000000000000000000000000000000000000000001000100000000000000000 _
b0000000000000000000000000000000010000000000000000000000000010000 f
b0000000000000000000000000000000000000000000000000000000000010001 p
1J!
b00000001111100101000001010010011 L!
b0000000000000000000000000000000010000000000000000000000000010000 Q!
b0000000000000000000000000000000000000000000000000000000000100010 [!
b0000000000000000000000000000000000000000000000000000000000011111 d!
b0000000000000000000000000000000000000001111100101000000000000000 f!
b0000000000000000000000000000000000000000000000000000000000011111 j!
b0000000000000000000000000000000000000001111100101000000000000000 p!
b00101 ~!
b11111 !"
b00101 ""
b0000000000000000000000000000000000000000000000000000000000010001 +"
#20
b0000000000000000000000000000000000000000000000000000000000011111 #
b0000000000000000000000000000000000000000000000000000100000000100 +
b0000000000000000000000000000000000000000000000101000100000011110 -
b0000000000000000000000000000000000000000000000000000000000000101 /
b0000000000000000000000000000000000000000000000000000000000000000 ;
b0000000000000000000000000000000000000000000000000000000000000000 =
b0000000000000000000000000000000000000000000000000000000000011111 ?
b0000000000000000000000000000000000000000000000000000000000011111 A
b0000000000000000000000000000000000000000000000000000000000011111 E
b1111111111111111111111111111111111111111111111111111111111100001 G
b0000000000000000000000000000000000000000000000000000000000000001 I
b0000000000000000000000000000000000000000000000000000000000000001 K
b0000000000000000000000000000000000000000000000000000000000000000 M
b0000000000000000000000000000000000000000000000000000000000000000 S
b0000000000000000000000000000000000000000000000000000000000000001 U
b0000000000000000000000000000000000000000000000000000000000000000 W
b0000000000000000000000000000000000000000000000000000000000000000 Y
b0000000000000000000000000000000000000000000000000000000000011111 [
b1111111111111111111111111111111111111111111111111111111111100001 ]
b0000000000000000000000000000000000000000000000000000000000000000 _
b011111 e
0J!
b0000000000000000000000000000000000000000000000000000000000011111 [!
b0000000000000000000000000000000000000000000000000000100000000100 h!
b0000000000000000000000000000000000000000000000101000100000011110 l!
b0000000000000000000000000000000000000000000000000000000000000101 n!
#21
b0000000000000000000000000000000010000000000000000000000000011000 9
b0000000000000000000000000000000000000000000000000000000000011111 ;
b0000000000000000000000000000000000000000000000000000000000011111 =
b0000000000000000000000000000000000000000000000000000000000111110 A
b0000000000000000000000000000000000000000000000000000000000111110 E
b0000000000000000000000000000000000000000000000000000000000000000 G
b0000000000000000000000000000000000000000000000000000000000000000 I
b0000000000000000000000000000000000000000000000000000000000000000 K
b0000000000000000000000000000111110000000000000000000000000000000 M
b0000000000000000000000000000000000000000000000000000000000000001 S
b0000000000000000000000000000000000000000000000000000000000000000 U
b0000000000000000000000000000000000000000000000000000000000000001 W
b0000000000000000000000000000000000000000000000000000000000000001 Y
b0000000000000000000000000000000000000000000000000000000000111110 [
b0000000000000000000000000000000000000000000000000000000000000000 ]
b0000000000000000000000000000111110000000000000000000000000000000 _
b0000000000000000000000000000000010000000000000000000000000010100 f
b0000000000000000000000000000000000000000000000000000000000011111 r
1J!
b00000000011000001000001100010011 L!
b0000000000000000000000000000000010000000000000000000000000010100 Q!
b0000000000000000000000000000000000000000000000000000000000111110 [!
b0000000000000000000000000000000000000000000000000000000000000110 d!
b0000000000000000000000000000000000000000011000001000000000000000 f!
b0000000000000000000000000000000000000000000000000000000000000110 j!
b0000000000000000000000000000000000000000011000001000000000000000 p!
b00001 ~!
b00110 !"
b00110 ""
b0000000000000000000000000000000000000000000000000000000000011111 -"
